…
`esriIndex()` wraps `esriCatalog()` but returns a data frame with added
columns to differentiate between folder, service, and layer URLs.

``` r
esriIndex(url)
#> # A tibble: 75 × 5
#>    name                      type  url                           urlType servi…¹
#>    <chr>                     <chr> <chr>                         <chr>   <chr>  
#>  1 AGP                       <NA>  https://sampleserver6.arcgis… folder  <NA>   
#>  2 Elevation                 <NA>  https://sampleserver6.arcgis… folder  <NA>   
#>  3 Energy                    <NA>  https://sampleserver6.arcgis… folder  <NA>   
#>  4 LocalGovernment           <NA>  https://sampleserver6.arcgis… folder  <NA>   
#>  5 Locators                  <NA>  https://sampleserver6.arcgis… folder  <NA>   
#>  6 NetworkAnalysis           <NA>  https://sampleserver6.arcgis… folder  <NA>   
#>  7 Oblique                   <NA>  https://sampleserver6.arcgis… folder  <NA>   
#>  8 OsoLandslide              <NA>  https://sampleserver6.arcgis… folder  <NA>   
#>  9 ScientificData            <NA>  https://sampleserver6.arcgis… folder  <NA>   
#> 10 SpatioTemporalAggregation <NA>  https://sampleserver6.arcgis… folder  <NA>   
#> # … with 65 more rows, and abbreviated variable name ¹​serviceType
```

Set `recurse = TRUE` to loop through folders and ensure the data frame
includes all available services.

``` r
esriIndex(url, recurse = TRUE)
#> # A tibble: 668 × 15
#>    name        type  url   urlType folde…¹ servi…² servi…³    id paren…⁴ defau…⁵
#>    <chr>       <chr> <chr> <chr>   <chr>   <chr>   <chr>   <int>   <int> <lgl>  
#>  1 AGP         <NA>  http… folder  <NA>    <NA>    <NA>       NA      NA NA     
#>  2 Elevation   <NA>  http… folder  <NA>    <NA>    <NA>       NA      NA NA     
#>  3 Energy      <NA>  http… folder  <NA>    <NA>    <NA>       NA      NA NA     
#>  4 LocalGover… <NA>  http… folder  <NA>    <NA>    <NA>       NA      NA NA     
#>  5 Locators    <NA>  http… folder  <NA>    <NA>    <NA>       NA      NA NA     
#>  6 NetworkAna… <NA>  http… folder  <NA>    <NA>    <NA>       NA      NA NA     
#>  7 Oblique     <NA>  http… folder  <NA>    <NA>    <NA>       NA      NA NA     
#>  8 OsoLandsli… <NA>  http… folder  <NA>    <NA>    <NA>       NA      NA NA     
#>  9 Scientific… <NA>  http… folder  <NA>    <NA>    <NA>       NA      NA NA     
#> 10 SpatioTemp… <NA>  http… folder  <NA>    <NA>    <NA>       NA      NA NA     
#> # … with 658 more rows, 5 more variables: minScale <dbl>, maxScale <int>,
#> #   geometryType <chr>, supportsDynamicLegends <lgl>, subLayerIds <list>, and
#> #   abbreviated variable names ¹​folderPath, ²​serviceName, ³​serviceType,
#> #   ⁴​parentLayerId, ⁵​defaultVisibility
```
…
